C:\Users\bruno.santos\git\mobile-pedidos-backend\src\main\java\br\com\neja\resources\util\URL.java
C:\Users\bruno.santos\git\mobile-pedidos-backend\src\main\java\br\com\neja\resources\ProdutoResource.java
C:\Users\bruno.santos\git\mobile-pedidos-backend\src\main\java\br\com\neja\domain\ItemPedidoPK.java
C:\Users\bruno.santos\git\mobile-pedidos-backend\src\main\java\br\com\neja\dto\ClienteDTO.java
C:\Users\bruno.santos\git\mobile-pedidos-backend\src\main\java\br\com\neja\resources\AuthResource.java
C:\Users\bruno.santos\git\mobile-pedidos-backend\src\main\java\br\com\neja\resources\exceptions\ValidationError.java
C:\Users\bruno.santos\git\mobile-pedidos-backend\src\main\java\br\com\neja\domain\Pagamento.java
C:\Users\bruno.santos\git\mobile-pedidos-backend\src\main\java\br\com\neja\services\ClienteService.java
C:\Users\bruno.santos\git\mobile-pedidos-backend\src\main\java\br\com\neja\services\exception\AuthorizationException.java
C:\Users\bruno.santos\git\mobile-pedidos-backend\src\main\java\br\com\neja\domain\PagamentoComBoleto.java
C:\Users\bruno.santos\git\mobile-pedidos-backend\src\main\java\br\com\neja\services\S3Service.java
C:\Users\bruno.santos\git\mobile-pedidos-backend\src\main\java\br\com\neja\domain\Categoria.java
C:\Users\bruno.santos\git\mobile-pedidos-backend\src\main\java\br\com\neja\services\mail\SmtpEmailService.java
C:\Users\bruno.santos\git\mobile-pedidos-backend\src\main\java\br\com\neja\services\AuthService.java
C:\Users\bruno.santos\git\mobile-pedidos-backend\src\main\java\br\com\neja\services\CategoriaService.java
C:\Users\bruno.santos\git\mobile-pedidos-backend\src\main\java\br\com\neja\resources\EstadoResource.java
C:\Users\bruno.santos\git\mobile-pedidos-backend\src\main\java\br\com\neja\domain\enums\Perfil.java
C:\Users\bruno.santos\git\mobile-pedidos-backend\src\main\java\br\com\neja\resources\exceptions\ResourcesExceptionHandler.java
C:\Users\bruno.santos\git\mobile-pedidos-backend\src\main\java\br\com\neja\services\validation\ClienteInsertValidator.java
C:\Users\bruno.santos\git\mobile-pedidos-backend\src\main\java\br\com\neja\repositories\ClienteRepository.java
C:\Users\bruno.santos\git\mobile-pedidos-backend\src\main\java\br\com\neja\services\DBService.java
C:\Users\bruno.santos\git\mobile-pedidos-backend\src\main\java\br\com\neja\services\CidadeService.java
C:\Users\bruno.santos\git\mobile-pedidos-backend\src\main\java\br\com\neja\security\UserSS.java
C:\Users\bruno.santos\git\mobile-pedidos-backend\src\main\java\br\com\neja\services\mail\MockEmailService.java
C:\Users\bruno.santos\git\mobile-pedidos-backend\src\main\java\br\com\neja\services\UserDetailsServiceImpl.java
C:\Users\bruno.santos\git\mobile-pedidos-backend\src\main\java\br\com\neja\resources\exceptions\StandardError.java
C:\Users\bruno.santos\git\mobile-pedidos-backend\src\main\java\br\com\neja\security\JWTUtil.java
C:\Users\bruno.santos\git\mobile-pedidos-backend\src\main\java\br\com\neja\repositories\CidadeRepository.java
C:\Users\bruno.santos\git\mobile-pedidos-backend\src\main\java\br\com\neja\config\JacksonConfig.java
C:\Users\bruno.santos\git\mobile-pedidos-backend\src\main\java\br\com\neja\dto\CategoriaDTO.java
C:\Users\bruno.santos\git\mobile-pedidos-backend\src\main\java\br\com\neja\domain\Cidade.java
C:\Users\bruno.santos\git\mobile-pedidos-backend\src\main\java\br\com\neja\domain\Estado.java
C:\Users\bruno.santos\git\mobile-pedidos-backend\src\main\java\br\com\neja\dto\EstadoDTO.java
C:\Users\bruno.santos\git\mobile-pedidos-backend\src\main\java\br\com\neja\resources\CategoriaResource.java
C:\Users\bruno.santos\git\mobile-pedidos-backend\src\main\java\br\com\neja\resources\util\SwaggerConfig.java
C:\Users\bruno.santos\git\mobile-pedidos-backend\src\main\java\br\com\neja\services\exception\FileException.java
C:\Users\bruno.santos\git\mobile-pedidos-backend\src\main\java\br\com\neja\services\validation\ClienteInsert.java
C:\Users\bruno.santos\git\mobile-pedidos-backend\src\main\java\br\com\neja\resources\ClienteResource.java
C:\Users\bruno.santos\git\mobile-pedidos-backend\src\main\java\br\com\neja\domain\Pedido.java
C:\Users\bruno.santos\git\mobile-pedidos-backend\src\main\java\br\com\neja\repositories\CategoriaRepository.java
C:\Users\bruno.santos\git\mobile-pedidos-backend\src\main\java\br\com\neja\services\UserService.java
C:\Users\bruno.santos\git\mobile-pedidos-backend\src\main\java\br\com\neja\security\JWTAuthorizationFilter.java
C:\Users\bruno.santos\git\mobile-pedidos-backend\src\main\java\br\com\neja\MobilePedidosApplication.java
C:\Users\bruno.santos\git\mobile-pedidos-backend\src\main\java\br\com\neja\config\DevConfig.java
C:\Users\bruno.santos\git\mobile-pedidos-backend\src\main\java\br\com\neja\services\mail\EmailService.java
C:\Users\bruno.santos\git\mobile-pedidos-backend\src\main\java\br\com\neja\services\validation\ClienteUpdateValidator.java
C:\Users\bruno.santos\git\mobile-pedidos-backend\src\main\java\br\com\neja\config\S3Config.java
C:\Users\bruno.santos\git\mobile-pedidos-backend\src\main\java\br\com\neja\security\JWTAuthenticationFilter.java
C:\Users\bruno.santos\git\mobile-pedidos-backend\src\main\java\br\com\neja\domain\Endereco.java
C:\Users\bruno.santos\git\mobile-pedidos-backend\src\main\java\br\com\neja\repositories\EnderecoRepository.java
C:\Users\bruno.santos\git\mobile-pedidos-backend\src\main\java\br\com\neja\services\BoletoService.java
C:\Users\bruno.santos\git\mobile-pedidos-backend\src\main\java\br\com\neja\services\validation\ClienteUpdate.java
C:\Users\bruno.santos\git\mobile-pedidos-backend\src\main\java\br\com\neja\filters\HeaderExposureFilter.java
C:\Users\bruno.santos\git\mobile-pedidos-backend\src\main\java\br\com\neja\dto\CidadeDTO.java
C:\Users\bruno.santos\git\mobile-pedidos-backend\src\main\java\br\com\neja\domain\PagamentoComCartao.java
C:\Users\bruno.santos\git\mobile-pedidos-backend\src\main\java\br\com\neja\services\validation\util\BR.java
C:\Users\bruno.santos\git\mobile-pedidos-backend\src\main\java\br\com\neja\domain\ItemPedido.java
C:\Users\bruno.santos\git\mobile-pedidos-backend\src\main\java\br\com\neja\dto\EmailDTO.java
C:\Users\bruno.santos\git\mobile-pedidos-backend\src\main\java\br\com\neja\services\EstadoService.java
C:\Users\bruno.santos\git\mobile-pedidos-backend\src\main\java\br\com\neja\dto\CredenciaisDTO.java
C:\Users\bruno.santos\git\mobile-pedidos-backend\src\main\java\br\com\neja\resources\exceptions\FieldMessage.java
C:\Users\bruno.santos\git\mobile-pedidos-backend\src\main\java\br\com\neja\services\exception\ObjectNotFoundException.java
C:\Users\bruno.santos\git\mobile-pedidos-backend\src\main\java\br\com\neja\services\ProdutoService.java
C:\Users\bruno.santos\git\mobile-pedidos-backend\src\main\java\br\com\neja\dto\ClienteNewDTO.java
C:\Users\bruno.santos\git\mobile-pedidos-backend\src\main\java\br\com\neja\resources\PedidoResource.java
C:\Users\bruno.santos\git\mobile-pedidos-backend\src\main\java\br\com\neja\dto\ProdutoDTO.java
C:\Users\bruno.santos\git\mobile-pedidos-backend\src\main\java\br\com\neja\services\exception\DataIntegrityException.java
C:\Users\bruno.santos\git\mobile-pedidos-backend\src\main\java\br\com\neja\services\ImageService.java
C:\Users\bruno.santos\git\mobile-pedidos-backend\src\main\java\br\com\neja\repositories\PagamentoRepository.java
C:\Users\bruno.santos\git\mobile-pedidos-backend\src\main\java\br\com\neja\repositories\PedidoRepository.java
C:\Users\bruno.santos\git\mobile-pedidos-backend\src\main\java\br\com\neja\domain\enums\TipoCliente.java
C:\Users\bruno.santos\git\mobile-pedidos-backend\src\main\java\br\com\neja\domain\Cliente.java
C:\Users\bruno.santos\git\mobile-pedidos-backend\src\main\java\br\com\neja\services\mail\AbstractEmailService.java
C:\Users\bruno.santos\git\mobile-pedidos-backend\src\main\java\br\com\neja\domain\enums\EstadoPagamento.java
C:\Users\bruno.santos\git\mobile-pedidos-backend\src\main\java\br\com\neja\config\TestConfig.java
C:\Users\bruno.santos\git\mobile-pedidos-backend\src\main\java\br\com\neja\domain\Produto.java
C:\Users\bruno.santos\git\mobile-pedidos-backend\src\main\java\br\com\neja\config\SecurityConfig.java
C:\Users\bruno.santos\git\mobile-pedidos-backend\src\main\java\br\com\neja\repositories\EstadoRepository.java
C:\Users\bruno.santos\git\mobile-pedidos-backend\src\main\java\br\com\neja\repositories\ItemPedidoRepository.java
C:\Users\bruno.santos\git\mobile-pedidos-backend\src\main\java\br\com\neja\repositories\ProdutoRepository.java
C:\Users\bruno.santos\git\mobile-pedidos-backend\src\main\java\br\com\neja\services\PedidoService.java
